<svg width="18" height="18" viewBox="0 0 18 18" fill="none" xmlns="http://www.w3.org/2000/svg">
<path d="M9.00003 0C4.03421 0 2.69365e-05 4.03418 2.69365e-05 9C-0.00173085 9.16172 0.0826441 9.31289 0.223269 9.39551C0.363894 9.47637 0.53616 9.47637 0.676785 9.39551C0.81741 9.31289 0.901785 9.16172 0.900027 9C0.900027 4.52109 4.52112 0.9 9.00003 0.9C11.8108 0.9 14.277 2.33086 15.7307 4.5H12.6C12.4383 4.49824 12.2871 4.58262 12.2045 4.72324C12.1237 4.86387 12.1237 5.03613 12.2045 5.17676C12.2871 5.31738 12.4383 5.40176 12.6 5.4H17.1V0.9C17.1018 0.778711 17.0543 0.660937 16.9682 0.574805C16.8821 0.488672 16.7643 0.441211 16.643 0.442969C16.3951 0.448242 16.1965 0.652148 16.2 0.9V3.60527C14.5565 1.4168 11.9426 0 9.00003 0ZM17.543 8.54297C17.2951 8.54824 17.0965 8.75215 17.1 9C17.1 13.4789 13.4789 17.1 9.00003 17.1C6.18928 17.1 3.72132 15.6691 2.26936 13.5H5.40003C5.56175 13.5035 5.71292 13.4174 5.79553 13.2785C5.87639 13.1379 5.87639 12.9639 5.79553 12.8232C5.71292 12.6844 5.56175 12.5982 5.40003 12.6H1.55042C1.49241 12.5895 1.4344 12.5895 1.37639 12.6H0.900027V17.1C0.898269 17.2617 0.982644 17.4129 1.12327 17.4955C1.26389 17.5764 1.43616 17.5764 1.57678 17.4955C1.71741 17.4129 1.80178 17.2617 1.80003 17.1V14.393C3.44182 16.5814 6.05745 18 9.00003 18C13.9658 18 18 13.9658 18 9C18.0018 8.87871 17.9543 8.76094 17.8682 8.6748C17.7821 8.58867 17.6643 8.54121 17.543 8.54297Z" fill="black"/>
</svg>
