<svg width="14" height="15" viewBox="0 0 14 15" fill="none" xmlns="http://www.w3.org/2000/svg">
<path d="M5 9L6.55557 10.5556C6.78293 10.7829 7.1627 10.7397 7.33312 10.467L9.5 7M1 5V13.5C1 13.7761 1.22386 14 1.5 14H12.5C12.7761 14 13 13.7761 13 13.5V5M1 5V3C1 2.72386 1.22386 2.5 1.5 2.5H3M1 5H13M13 5V3C13 2.72386 12.7761 2.5 12.5 2.5H11M3 2.5V1.5C3 1.22386 3.22386 1 3.5 1V1C3.77614 1 4 1.22386 4 1.5V2.5M3 2.5V3.5C3 3.77614 3.22386 4 3.5 4V4C3.77614 4 4 3.77614 4 3.5V2.5M4 2.5H10M10 2.5V1.5C10 1.22386 10.2239 1 10.5 1V1C10.7761 1 11 1.22386 11 1.5V2.5M10 2.5V3.5C10 3.77614 10.2239 4 10.5 4V4C10.7761 4 11 3.77614 11 3.5V2.5" stroke="white" stroke-width="0.5" stroke-linecap="round"/>
</svg>
