<svg width="14" height="8" viewBox="0 0 14 8" fill="none" xmlns="http://www.w3.org/2000/svg">
<path fill-rule="evenodd" clip-rule="evenodd" d="M6.80383 3.8252C7.21805 3.8252 7.55383 3.48941 7.55383 3.0752C7.55383 2.66098 7.21805 2.3252 6.80383 2.3252C6.38962 2.3252 6.05383 2.66098 6.05383 3.0752C6.05383 3.48941 6.38962 3.8252 6.80383 3.8252ZM6.80383 4.3252C7.49419 4.3252 8.05383 3.76555 8.05383 3.0752C8.05383 2.38484 7.49419 1.8252 6.80383 1.8252C6.11348 1.8252 5.55383 2.38484 5.55383 3.0752C5.55383 3.76555 6.11348 4.3252 6.80383 4.3252Z" fill="white"/>
<path fill-rule="evenodd" clip-rule="evenodd" d="M13.9074 3.82425L13.7305 3.64744C12.0068 1.92419 10.3331 0.831497 8.65632 0.404487C8.12302 0.268674 7.58942 0.2002 7.0538 0.200195C6.2384 0.200188 5.42768 0.358858 4.6156 0.672226C3.21703 1.21191 1.81444 2.21042 0.377042 3.64745L0.200195 3.82425L0.377042 4.00105C2.64907 6.27248 4.83413 7.44832 7.0538 7.4483C9.27347 7.44828 11.4585 6.2724 13.7305 4.00105L13.9074 3.82425ZM0.909537 3.82425C3.0693 5.93166 5.07794 6.94832 7.05379 6.9483C9.02965 6.94828 11.0383 5.93159 13.198 3.82425C11.9049 2.56253 10.666 1.69178 9.45587 1.19612C9.83245 1.72665 10.0538 2.37507 10.0538 3.0752C10.0538 4.87012 8.59876 6.3252 6.80383 6.3252C5.00891 6.3252 3.55383 4.87012 3.55383 3.0752C3.55383 2.5142 3.69597 1.9864 3.9462 1.52585C2.96034 2.04315 1.95256 2.8065 0.909537 3.82425ZM6.80383 5.8252C8.32262 5.8252 9.55383 4.59398 9.55383 3.0752C9.55383 2.17075 9.11721 1.36829 8.44325 0.867086C7.97731 0.755517 7.51466 0.7002 7.05379 0.700195C6.33718 0.700189 5.61626 0.833916 4.88537 1.10491C4.37241 1.60446 4.05383 2.30262 4.05383 3.0752C4.05383 4.59398 5.28505 5.8252 6.80383 5.8252Z" fill="white"/>
<path fill-rule="evenodd" clip-rule="evenodd" d="M8.65632 0.404487C8.12302 0.268674 7.58942 0.2002 7.0538 0.200195C6.2384 0.200188 5.42768 0.358858 4.6156 0.672226C3.21703 1.21191 1.81444 2.21042 0.377042 3.64745L0.200195 3.82425L0.377042 4.00105C2.64907 6.27248 4.83413 7.44832 7.0538 7.4483C9.27347 7.44828 11.4585 6.2724 13.7305 4.00105L13.9074 3.82425L13.7305 3.64744C12.0068 1.92419 10.3331 0.831497 8.65632 0.404487ZM6.80383 3.8252C7.21805 3.8252 7.55383 3.48941 7.55383 3.0752C7.55383 2.66098 7.21805 2.3252 6.80383 2.3252C6.38962 2.3252 6.05383 2.66098 6.05383 3.0752C6.05383 3.48941 6.38962 3.8252 6.80383 3.8252ZM9.55383 3.0752C9.55383 4.59398 8.32262 5.8252 6.80383 5.8252C5.28505 5.8252 4.05383 4.59398 4.05383 3.0752C4.05383 2.30262 4.37241 1.60446 4.88537 1.10491C5.61626 0.833916 6.33718 0.700189 7.05379 0.700195C7.51466 0.7002 7.97731 0.755517 8.44325 0.867086C9.11721 1.36829 9.55383 2.17075 9.55383 3.0752ZM6.80383 4.3252C7.49419 4.3252 8.05383 3.76555 8.05383 3.0752C8.05383 2.38484 7.49419 1.8252 6.80383 1.8252C6.11348 1.8252 5.55383 2.38484 5.55383 3.0752C5.55383 3.76555 6.11348 4.3252 6.80383 4.3252ZM0.909537 3.82425C3.0693 5.93166 5.07794 6.94832 7.05379 6.9483C9.02965 6.94828 11.0383 5.93159 13.198 3.82425C11.9049 2.56253 10.666 1.69178 9.45587 1.19612C9.83245 1.72665 10.0538 2.37507 10.0538 3.0752C10.0538 4.87012 8.59876 6.3252 6.80383 6.3252C5.00891 6.3252 3.55383 4.87012 3.55383 3.0752C3.55383 2.5142 3.69597 1.9864 3.9462 1.52585C2.96034 2.04315 1.95256 2.8065 0.909537 3.82425Z" fill="white"/>
</svg>
